…
# standard-normal (z) scores for precipitation and selection of intensity threshold ----
data$z <- scale(data$PRCP)
threshold <- 2.00
data$ire <- ifelse(data$z > threshold, 1, 0)

# retain precipitation amounts from intense rainfall event (ire) selection ----
data$ireppt <- ifelse(data$ire == 1, data$PRCP, 0)

data <- data %>% 
  group_by(year = year(DATE), month = month(DATE)) %>% 
  summarise_if(is.numeric, sum)

data[c(1:2,6,8:9)]
## # A tibble: 970 × 5
## # Groups:   year [82]
##     year month  PRCP   ire ireppt
##    <dbl> <dbl> <dbl> <dbl>  <dbl>
##  1  1940     1  74.9     1   36.6
##  2  1940     2  78.5     0    0  
##  3  1940     3  68.8     0    0  
##  4  1940     4  65.6     0    0  
##  5  1940     5 198.      2  136. 
##  6  1940     6  86.9     0    0  
##  7  1940     7  70.3     0    0  
##  8  1940     8 205.      3  138. 
##  9  1940     9  41.4     1   23.6
## 10  1940    10  21.1     0    0  
## # … with 960 more rows
```
…
